…
"research shows that when class size reduction programs are well-designed and implemented in the primary grades (K-3), student achievement rises as class size drops."

To evaluate this further, bring in a measure of student achievment. UNESCO includes data for education completion rates, which could be a measure of student achievement.

Completion Rates
----------------

Downloaded data from [UNESCO](http://data.uis.unesco.org/index.aspx?queryid=180) on 05/07/2019 `Completion rate for primary education (household survey data).`

``` r
completion_rate <- read_csv("completion_primary.csv")
completion_rate %>% count(Indicator)
```

    # A tibble: 99 x 2
       Indicator                                                              n
       <chr>                                                              <int>
     1 Completion rate, primary education, adjusted gender parity index …   156
     2 Completion rate, primary education, adjusted location parity inde…   150
     3 Completion rate, primary education, adjusted wealth parity index …   152
     4 Completion rate, primary education, both sexes (%)                   156
     5 Completion rate, primary education, female (%)                       156
     6 Completion rate, primary education, female, adjusted location par…   150
     7 Completion rate, primary education, female, adjusted wealth parit…   152
     8 Completion rate, primary education, fourth quintile, adjusted gen…   152
     9 Completion rate, primary education, fourth quintile, adjusted loc…   149
    10 Completion rate, primary education, fourth quintile, both sexes (…   152
    # … with 89 more rows
…
